without_metamodel/models_workbenches/fr.mleduc.gx10.programs/gemoc-gen/execution/execution-20160930_184050/vcdFromSimu.vcd
$date 
Fri Sep 30 18:40:55 CEST 2016
$end

$version 
VCD Generation 2.1.0
$end

$comment alias ProgramImpl_0__mainBlock__ProgramImpl_0_start "ProgramImpl_0::mainBlock::ProgramImpl_0_start" $end
$comment alias ProgramImpl_0__mainBlock__TrueImpl_7_startStatement "ProgramImpl_0::mainBlock::TrueImpl_7_startStatement" $end
$comment alias ProgramImpl_0__mainBlock__PrintImpl_6_startStatement "ProgramImpl_0::mainBlock::PrintImpl_6_startStatement" $end
$comment alias ProgramImpl_0__mainBlock__WhileImpl_3_evaluateFalse "ProgramImpl_0::mainBlock::WhileImpl_3_evaluateFalse" $end
$comment alias ProgramImpl_0__mainBlock__main_1_startMethodEvt "ProgramImpl_0::mainBlock::main_1_startMethodEvt" $end
$comment alias ProgramImpl_0__mainBlock__IntConstImpl_4_endStatement "ProgramImpl_0::mainBlock::IntConstImpl_4_endStatement" $end
$comment alias ProgramImpl_0__mainBlock__BlockImpl_5_startStatement "ProgramImpl_0::mainBlock::BlockImpl_5_startStatement" $end
$comment alias ProgramImpl_0__mainBlock__IntConstImpl_4_startStatement "ProgramImpl_0::mainBlock::IntConstImpl_4_startStatement" $end
$comment alias ProgramImpl_0__mainBlock__main_1_endMethodEvt "ProgramImpl_0::mainBlock::main_1_endMethodEvt" $end
$comment alias ProgramImpl_0__mainBlock__WhileImpl_3_doEvaluateIf "ProgramImpl_0::mainBlock::WhileImpl_3_doEvaluateIf" $end
$comment alias ProgramImpl_0__mainBlock__WhileImpl_3_evaluateTrue "ProgramImpl_0::mainBlock::WhileImpl_3_evaluateTrue" $end
$comment alias ProgramImpl_0__mainBlock__BlockImpl_2_endStatement "ProgramImpl_0::mainBlock::BlockImpl_2_endStatement" $end
$comment alias ProgramImpl_0__mainBlock__BlockImpl_2_startStatement "ProgramImpl_0::mainBlock::BlockImpl_2_startStatement" $end
$comment alias ProgramImpl_0__mainBlock__PrintImpl_6_print "ProgramImpl_0::mainBlock::PrintImpl_6_print" $end
$comment alias ProgramImpl_0__mainBlock__TrueImpl_7_endStatement "ProgramImpl_0::mainBlock::TrueImpl_7_endStatement" $end
$comment alias ProgramImpl_0__mainBlock__WhileImpl_3_startStatement "ProgramImpl_0::mainBlock::WhileImpl_3_startStatement" $end
$comment alias ProgramImpl_0__mainBlock__WhileImpl_3_endStatement "ProgramImpl_0::mainBlock::WhileImpl_3_endStatement" $end
$comment alias ProgramImpl_0__mainBlock__PrintImpl_6_endStatement "ProgramImpl_0::mainBlock::PrintImpl_6_endStatement" $end
$comment alias ProgramImpl_0__mainBlock__BlockImpl_5_endStatement "ProgramImpl_0::mainBlock::BlockImpl_5_endStatement" $end
$comment hide ProgramImpl_0__mainBlock__ProgramImpl_0intermediate_oneStartOnly1__OneTickAndNoMoreDef__OneTickAndNoMore_onlyOne $end
$comment alias ProgramImpl_0__mainBlock__ProgramImpl_0intermediate_oneStartOnly1__OneTickAndNoMoreDef__OneTickAndNoMore_onlyOne "ProgramImpl_0::mainBlock::ProgramImpl_0intermediate_oneStartOnly1::OneTickAndNoMoreDef::OneTickAndNoMore_onlyOne" $end
$comment hide ProgramImpl_0__mainBlock__ProgramImpl_0intermediate_oneStartOnly1__OneTickAndNoMoreDef__OneTickAndNoMore_onlyOne__FilterByDef__FilterBy_concatWait $end
$comment alias ProgramImpl_0__mainBlock__ProgramImpl_0intermediate_oneStartOnly1__OneTickAndNoMoreDef__OneTickAndNoMore_onlyOne__FilterByDef__FilterBy_concatWait "ProgramImpl_0::mainBlock::ProgramImpl_0intermediate_oneStartOnly1::OneTickAndNoMoreDef::OneTickAndNoMore_onlyOne::FilterByDef::FilterBy_concatWait" $end
$comment hide ProgramImpl_0__mainBlock__WhileImpl_3BooleanGuardedTransitionRule_ifTrueThenElseElse__BooleanGuardedTransitionRuleDef__ResEvalGuard $end
$comment alias ProgramImpl_0__mainBlock__WhileImpl_3BooleanGuardedTransitionRule_ifTrueThenElseElse__BooleanGuardedTransitionRuleDef__ResEvalGuard "ProgramImpl_0::mainBlock::WhileImpl_3BooleanGuardedTransitionRule_ifTrueThenElseElse::BooleanGuardedTransitionRuleDef::ResEvalGuard" $end
$comment alias ProgramImpl_0__mainBlock__ProgramImpl_0intermediate_oneStartOnly1 "ProgramImpl_0::mainBlock::ProgramImpl_0intermediate_oneStartOnly1" $end
$comment hide ProgramImpl_0__mainBlock__ProgramImpl_0intermediate_oneStartOnly1__OneTickAndNoMoreDef__OneTickAndNoMore_onlyOne__FilterByDef__killIt $end
$comment alias ProgramImpl_0__mainBlock__ProgramImpl_0intermediate_oneStartOnly1__OneTickAndNoMoreDef__OneTickAndNoMore_onlyOne__FilterByDef__killIt "ProgramImpl_0::mainBlock::ProgramImpl_0intermediate_oneStartOnly1::OneTickAndNoMoreDef::OneTickAndNoMore_onlyOne::FilterByDef::killIt" $end
$comment hide ProgramImpl_0__mainBlock__ProgramImpl_0intermediate_oneStartOnly1__OneTickAndNoMoreDef__OneTickAndNoMore_onlyOne__FilterByDef__FilterBy_waitHead $end
$comment alias ProgramImpl_0__mainBlock__ProgramImpl_0intermediate_oneStartOnly1__OneTickAndNoMoreDef__OneTickAndNoMore_onlyOne__FilterByDef__FilterBy_waitHead "ProgramImpl_0::mainBlock::ProgramImpl_0intermediate_oneStartOnly1::OneTickAndNoMoreDef::OneTickAndNoMore_onlyOne::FilterByDef::FilterBy_waitHead" $end
$comment alias ProgramImpl_0__mainBlock__WhileImpl_3_Union_allWhileLoopEnds "ProgramImpl_0::mainBlock::WhileImpl_3_Union_allWhileLoopEnds" $end
$comment hide ProgramImpl_0__mainBlock__ProgramImpl_0intermediate_oneStartOnly1__OneTickAndNoMoreDef__OneTickAndNoMore_onlyOne__FilterByDef__FilterBy_death $end
$comment alias ProgramImpl_0__mainBlock__ProgramImpl_0intermediate_oneStartOnly1__OneTickAndNoMoreDef__OneTickAndNoMore_onlyOne__FilterByDef__FilterBy_death "ProgramImpl_0::mainBlock::ProgramImpl_0intermediate_oneStartOnly1::OneTickAndNoMoreDef::OneTickAndNoMore_onlyOne::FilterByDef::FilterBy_death" $end
$comment hide ProgramImpl_0__mainBlock__WhileImpl_3BooleanGuardedTransitionRule_ifTrueThenElseElse__BooleanGuardedTransitionRuleDef__evalCausesResult__AlternatesDef__Alt_c1DelayedByOne $end
$comment alias ProgramImpl_0__mainBlock__WhileImpl_3BooleanGuardedTransitionRule_ifTrueThenElseElse__BooleanGuardedTransitionRuleDef__evalCausesResult__AlternatesDef__Alt_c1DelayedByOne "ProgramImpl_0::mainBlock::WhileImpl_3BooleanGuardedTransitionRule_ifTrueThenElseElse::BooleanGuardedTransitionRuleDef::evalCausesResult::AlternatesDef::Alt_c1DelayedByOne" $end
$comment hide ProgramImpl_0__mainBlock__ProgramImpl_0intermediate_oneStartOnly1__OneTickAndNoMoreDef__OneTickAndNoMore_onlyOne__FilterByDef__FilterBy_FilterBySeqTail $end
$comment alias ProgramImpl_0__mainBlock__ProgramImpl_0intermediate_oneStartOnly1__OneTickAndNoMoreDef__OneTickAndNoMore_onlyOne__FilterByDef__FilterBy_FilterBySeqTail "ProgramImpl_0::mainBlock::ProgramImpl_0intermediate_oneStartOnly1::OneTickAndNoMoreDef::OneTickAndNoMore_onlyOne::FilterByDef::FilterBy_FilterBySeqTail" $end
$comment scale 0.1  $end
$scope module top $end
$var event 1 !1 ProgramImpl_0__mainBlock__ProgramImpl_0_start $end
$var event 1 !2 ProgramImpl_0__mainBlock__TrueImpl_7_startStatement $end
$var event 1 !3 ProgramImpl_0__mainBlock__PrintImpl_6_startStatement $end
$var event 1 !4 ProgramImpl_0__mainBlock__WhileImpl_3_evaluateFalse $end
$var event 1 !5 ProgramImpl_0__mainBlock__main_1_startMethodEvt $end
$var event 1 !6 ProgramImpl_0__mainBlock__IntConstImpl_4_endStatement $end
$var event 1 !7 ProgramImpl_0__mainBlock__BlockImpl_5_startStatement $end
$var event 1 !8 ProgramImpl_0__mainBlock__IntConstImpl_4_startStatement $end
$var event 1 !9 ProgramImpl_0__mainBlock__main_1_endMethodEvt $end
$var event 1 !10 ProgramImpl_0__mainBlock__WhileImpl_3_doEvaluateIf $end
$var event 1 !11 ProgramImpl_0__mainBlock__WhileImpl_3_evaluateTrue $end
$var event 1 !12 ProgramImpl_0__mainBlock__BlockImpl_2_endStatement $end
$var event 1 !13 ProgramImpl_0__mainBlock__BlockImpl_2_startStatement $end
$var event 1 !14 ProgramImpl_0__mainBlock__PrintImpl_6_print $end
$var event 1 !15 ProgramImpl_0__mainBlock__TrueImpl_7_endStatement $end
$var event 1 !16 ProgramImpl_0__mainBlock__WhileImpl_3_startStatement $end
$var event 1 !17 ProgramImpl_0__mainBlock__WhileImpl_3_endStatement $end
$var event 1 !18 ProgramImpl_0__mainBlock__PrintImpl_6_endStatement $end
$var event 1 !19 ProgramImpl_0__mainBlock__BlockImpl_5_endStatement $end
$var event 1 !20 ProgramImpl_0__mainBlock__ProgramImpl_0intermediate_oneStartOnly1__OneTickAndNoMoreDef__OneTickAndNoMore_onlyOne $end
$var event 1 !21 ProgramImpl_0__mainBlock__ProgramImpl_0intermediate_oneStartOnly1__OneTickAndNoMoreDef__OneTickAndNoMore_onlyOne__FilterByDef__FilterBy_concatWait $end
$var event 1 !22 ProgramImpl_0__mainBlock__WhileImpl_3BooleanGuardedTransitionRule_ifTrueThenElseElse__BooleanGuardedTransitionRuleDef__ResEvalGuard $end
$var event 1 !23 ProgramImpl_0__mainBlock__ProgramImpl_0intermediate_oneStartOnly1 $end
$var event 1 !24 ProgramImpl_0__mainBlock__ProgramImpl_0intermediate_oneStartOnly1__OneTickAndNoMoreDef__OneTickAndNoMore_onlyOne__FilterByDef__killIt $end
$var event 1 !25 ProgramImpl_0__mainBlock__ProgramImpl_0intermediate_oneStartOnly1__OneTickAndNoMoreDef__OneTickAndNoMore_onlyOne__FilterByDef__FilterBy_waitHead $end
$var event 1 !26 ProgramImpl_0__mainBlock__WhileImpl_3_Union_allWhileLoopEnds $end
$var event 1 !27 ProgramImpl_0__mainBlock__ProgramImpl_0intermediate_oneStartOnly1__OneTickAndNoMoreDef__OneTickAndNoMore_onlyOne__FilterByDef__FilterBy_death $end
$var event 1 !28 ProgramImpl_0__mainBlock__WhileImpl_3BooleanGuardedTransitionRule_ifTrueThenElseElse__BooleanGuardedTransitionRuleDef__evalCausesResult__AlternatesDef__Alt_c1DelayedByOne $end
$var event 1 !29 ProgramImpl_0__mainBlock__ProgramImpl_0intermediate_oneStartOnly1__OneTickAndNoMoreDef__OneTickAndNoMore_onlyOne__FilterByDef__FilterBy_FilterBySeqTail $end
$upscope $end
$enddefinitions $end

#10
1!1
#20
1!5
#30
1!7
#40
1!16
#50
1!2
#60
1!15
#70
1!10
#80
1!11
#90
1!13
#100
1!3
#110
1!8
#120
1!6
#130
1!14
#140
1!18
#150
1!12
#160
1!2
#170
1!15
#180
1!10
#190
1!11
#200
1!13
#210
1!3
#220
1!8
#230
1!6
#240
1!14
#250
1!18
#260
1!12
#270
1!2
#280
1!15
#290
1!10
#300
1!11
#310
1!13
#320
1!3
#330
1!8
#340
1!6
#350
1!14
#360
1!18
#370
1!12
#380
1!2
#390
1!15
#400
1!10
#410
1!11
#420
1!13
#430
1!3
#440
1!8
#450
1!6
#460
1!14
#470
1!18
#480
1!12
#490
1!2
#500
1!15
#510
1!10
#520
1!11
#530
1!13
#540
1!3
#550
1!8
#560
1!6
#570
1!14
#580
1!18
#590
1!12
#600
1!2
#610
1!15
#620
1!10
#630
1!11
#640
1!13
#650
1!3
#660
1!8
#670
1!6
#680
1!14
#690
1!18
#700
1!12
#710
1!2
#720
1!15
#730
1!10
#740
1!11
#750
1!13
#760
1!3
#770
1!8
#780
1!6
#790
1!14
#800
1!18
#810
1!12
#820
1!2
#830
1!15
#840
1!10
#850
1!11
#860
1!13
#870
1!3
#880
1!8
#890
1!6
#900
1!14
#910
1!18
#920
1!12
#930
1!2
#940
1!15
#950
1!10
#960
1!11
#970
1!13
#980
1!3
#990
1!8
#1000
1!6
#1010
1!14
#1020
1!18
#1030
1!12
#1040
1!2
#1050
1!15
#1060
1!10
#1070
1!11
#1080
1!13
#1090
1!3
#1100
1!8
#1110
1!6
#1120
1!14
#1130
1!18
#1140
1!12
#1150
1!2
#1160
1!15
#1170
1!10
#1180
1!11
#1190
1!13
#1200
1!3
#1210
1!8
#1220
1!6
#1230
1!14
#1240
1!18
#1250
1!12
#1260
1!2
#1270
1!15
#1280
1!10
#1290
1!11
#1300
1!13
#1310
1!3
#1320
1!8
#1330
1!6
#1340
1!14
#1350
1!18
#1360
1!12
#1370
1!2
#1380
1!15
#1390
1!10
#1400
1!11
#1410
1!13
#1420
1!3
#1430
1!8
#1440
1!6
#1450
1!14
#1460
1!18
#1470
1!12
#1480
1!2
#1490
1!15
#1500
1!10
#1510
1!11
#1520
1!13
#1530
1!3
#1540
1!8
#1550
1!6
#1560
1!14
#1570
1!18
#1580
1!12
#1590
1!2
#1600
1!15
#1610
1!10
#1620
1!11
#1630
1!13
#1640
1!3
#1650
1!8
#1660
1!6
#1670
1!14
#1680
1!18
#1690
1!12
#1700
1!2
#1710
1!15
#1720
1!10
#1730
1!11
#1740
1!13
#1750
1!3
#1760
1!8
#1770
1!6
#1780
1!14
#1790
1!18
#1800
1!12
#1810
1!2
#1820
1!15
#1830
1!10
#1840
1!11
#1850
1!13
#1860
1!3
#1870
1!8
#1880
1!6
#1890
1!14
#1900
1!18
#1910
1!12
#1920
1!2
#1930
1!15
#1940
1!10
#1950
1!11
#1960
1!13
#1970
1!3
#1980
1!8
#1990
1!6
#2000
1!14
#2010
1!18
#2020
1!12
#2030
1!2
#2040
1!15
#2050
1!10
#2060
1!11
#2070
1!13
#2080
1!3
#2090
1!8
#2100
1!6
#2110
1!14
#2120
1!18
#2130
1!12
#2140
1!2
#2150
1!15
#2160
1!10
#2170
1!11
#2180
1!13
#2190
1!3
#2200
1!8
#2210
1!6
#2220
1!14
#2230
1!18
#2240
1!12
#2250
1!2
#2260
1!15
#2270
1!10
#2280
1!11
#2290
1!13
#2300
1!3
#2310
1!8
#2320
1!6
#2330
1!14
#2340
1!18
#2350
1!12
#2360
1!2
#2370
1!15
#2380
1!10
#2390
1!11
#2400
1!13
#2410
1!3
#2420
1!8
#2430
1!6
#2440
1!14
#2450
1!18
#2460
1!12
#2470
1!2
#2480
1!15
#2490
1!10
#2500
1!11
#2510
1!13
#2520
1!3
#2530
1!8
#2540
1!6
#2550
1!14
#2560
1!18
#2570
1!12
#2580
1!2
#2590
1!15
#2600
1!10
#2610
1!11
#2620
1!13
#2630
1!3
#2640
1!8
#2650
1!6
#2660
1!14
#2670
1!18
#2680
1!12
#2690
1!2
#2700
1!15
#2710
1!10
#2720
1!11
#2730
1!13
#2740
1!3
#2750
1!8
#2760
1!6
#2770
1!14
#2780
1!18
#2790
1!12
#2800
1!2
#2810
1!15
#2820
1!10
#2830
1!11
#2840
1!13
#2850
1!3
#2860
1!8
#2870
1!6
#2880
1!14
#2890
1!18
#2900
1!12
#2910
1!2
#2920
1!15
#2930
1!10
#2940
1!11
#2950
1!13
#2960
1!3
#2970
1!8
#2980
1!6
#2990
1!14
#3000
1!18
#3010
1!12
#3020
1!2
#3030
1!15
#3040
1!10
#3050
1!11
#3060
1!13
#3070
1!3
#3080
1!8
#3090
1!6
#3100
1!14
#3110
1!18
#3120
1!12
#3130
1!2
#3140
1!15
#3150
1!10
#3160
1!11
#3170
1!13
#3180
1!3
#3190
1!8
#3200
1!6
#3210
1!14
#3220
1!18
#3230
1!12
#3240
1!2
#3250
1!15
#3260
1!10
#3270
1!11
#3280
1!13
#3290
1!3
#3300
1!8
#3310
1!6
#3320
1!14
#3330
1!18
#3340
1!12
#3350
1!2
#3360
1!15
#3370
1!10
#3380
1!11
#3390
1!13
#3400
1!3
#3410
1!8
#3420
1!6
#3430
1!14
#3440
1!18
#3450
1!12
#3460
1!2
#3470
1!15
#3480
1!10
#3490
1!11
#3500
1!13
#3510
1!3
#3520
1!8
#3530
1!6
#3540
1!14
#3550
1!18
#3560
1!12
#3570
1!2
#3580
1!15
#3590
1!10
#3600
1!11
#3610
1!13
#3620
1!3
#3630
1!8
#3640
1!6
#3650
1!14
#3660
1!18
#3670
1!12
#3680
1!2
#3690
1!15
#3700
1!10
#3710
1!11
#3720
1!13
#3730
1!3
#3740
1!8
#3750
1!6
#3760
1!14
#3770
1!18
#3780
1!12
#3790
1!2
#3800
1!15
#3810
1!10
#3820
1!11
#3830
1!13
#3840
1!3
#3850
1!8
#3860
1!6
#3870
1!14
#3880
1!18
#3890
1!12
#3900
1!2
#3910
1!15
#3920
1!10
#3930
1!11
#3940
1!13
#3950
1!3
#3960
1!8
#3970
1!6
#3980
1!14
#3990
1!18
#4000
1!12
#4010
1!2
#4020
1!15
#4030
1!10
#4040
1!11
#4050
1!13
#4060
1!3
#4070
1!8
#4080
1!6
#4090
1!14
#4100
1!18
#4110
1!12
#4120
1!2
#4130
1!15
#4140
1!10
#4150
1!11
#4160
1!13
#4170
1!3
#4180
1!8
#4190
1!6
#4200
1!14
#4210
1!18
#4220
1!12
#4230
1!2
#4240
1!15
#4250
1!10
#4260
1!11
#4270
1!13
#4280
1!3
#4290
1!8
#4300
1!6
#4310
1!14
#4320
1!18
#4330
1!12
#4340
1!2
#4350
1!15
#4360
1!10
#4370
1!11
#4380
1!13
#4390
1!3
#4400
1!8
#4410
1!6
#4420
1!14
#4430
1!18
#4440
1!12
#4450
1!2
#4460
1!15
#4470
1!10
#4480
1!11
#4490
1!13
#4500
1!3
#4510
1!8
#4520
1!6
#4530
1!14
#4540
1!18
#4550
1!12
#4560
1!2
#4570
1!15
#4580
1!10
#4590
1!11
#4600
1!13
#4610
1!3
#4620
1!8
#4630
1!6
#4640
1!14
#4650
1!18
#4660
1!12
#4670
1!2
#4680
1!15
#4690
1!10
#4700
1!11
#4710
1!13
#4720
1!3
#4730
1!8
#4740
1!6
#4750
1!14
#4760
1!18
#4770
1!12
#4780
1!2
#4790
1!15
#4800
1!10
#4810
1!11
#4820
1!13
#4830
1!3
#4840
1!8
#4850
1!6
#4860
1!14
#4870
1!18
#4880
1!12
#4890
1!2
#4900
1!15
#4910
1!10
#4920
1!11
#4930
1!13
#4940
1!3
#4950
1!8
#4960
1!6
#4970
1!14
#4980
1!18
#4990
1!12
#5000
1!2
#5010
1!15
#5020
1!10
#5030
1!11
#5040
1!13
#5050
1!3
#5060
1!8
#5070
1!6
#5080
1!14
#5090
1!18
#5100
1!12
#5110
1!2
#5120
1!15
#5130
1!10
#5140
1!11
#5150
1!13
#5160
1!3
#5170
1!8
#5180
1!6
#5190
1!14
#5200
1!18
#5210
1!12
#5220
1!2
#5230
1!15
#5240
1!10
#5250
1!11
#5260
1!13
#5270
1!3
#5280
1!8
#5290
1!6
#5300
1!14
#5310
1!18
#5320
1!12
#5330
1!2
#5340
1!15
#5350
1!10
#5360
1!11
#5370
1!13
#5380
1!3
#5390
1!8
#5400
1!6
#5410
1!14
#5420
1!18
#5430
1!12
#5440
1!2
#5450
1!15
#5460
1!10
#5470
1!11
#5480
1!13
#5490
1!3
#5500
1!8
#5510
1!6
#5520
1!14
#5530
1!18
#5540
1!12
#5550
1!2
#5560
1!15
#5570
1!10
#5580
1!11
#5590
1!13
#5600
1!3
#5610
1!8
#5620
1!6
#5630
1!14
#5640
1!18
#5650
1!12
#5660
1!2
#5670
1!15
#5680
1!10
#5690
1!11
#5700
1!13
#5710
1!3
#5720
1!8
#5730
1!6
#5740
1!14
#5750
1!18
#5760
1!12
#5770
1!2
#5780
1!15
#5790
1!10
#5800
1!11
#5810
1!13
#5820
1!3
#5830
1!8
#5840
1!6
#5850
1!14
#5860
1!18
#5870
1!12
#5880
1!2
#5890
1!15
#5900
1!10
#5910
1!11
#5920
1!13
#5930
1!3
#5940
1!8
#5950
1!6
#5960
1!14
#5970
1!18
#5980
1!12
#5990
1!2
#6000
1!15
#6010
1!10
#6020
1!11
#6030
1!13
#6040
1!3
#6050
1!8
#6060
1!6
#6070
1!14
#6080
1!18
#6090
1!12
#6100
1!2
#6110
1!15
#6120
1!10
#6130
1!11
#6140
1!13
#6150
1!3
#6160
1!8
#6170
1!6
#6180
1!14
#6190
1!18
#6200
1!12
#6210
1!2
#6220
1!15
#6230
1!10
#6240
1!11
#6250
1!13
#6260
1!3
#6270
1!8
#6280
1!6
#6290
1!14
#6300
1!18
#6310
1!12
#6320
1!2
#6330
1!15
#6340
1!10
#6350
1!11
#6360
1!13
#6370
1!3
#6380
1!8
#6390
1!6
#6400
1!14
#6410
1!18
#6420
1!12
#6430
1!2
#6440
1!15
#6450
1!10
#6460
1!11
#6470
1!13
#6480
1!3
#6490
1!8
#6500
1!6
#6510
1!14
#6520
1!18
#6530
1!12
#6540
1!2
#6550
1!15
#6560
1!10
#6570
1!11
#6580
1!13
#6590
1!3
#6600
1!8
#6610
1!6
#6620
1!14
#6630
1!18
#6640
1!12
#6650
1!2
#6660
1!15
#6670
1!10
#6680
1!11
#6690
1!13
#6700
1!3
#6710
1!8
#6720
1!6
#6730
1!14
#6740
1!18
#6750
1!12
#6760
1!2
#6770
1!15
#6780
1!10
#6790
1!11
#6800
1!13
#6810
1!3
#6820
1!8
#6830
1!6
#6840
1!14
#6850
1!18
#6860
1!12
#6870
1!2
#6880
1!15
#6890
1!10
#6900
1!11
#6910
1!13
#6920
1!3
#6930
1!8
#6940
1!6
#6950
1!14
#6960
1!18
#6970
1!12
#6980
1!2
#6990
1!15
#7000
1!10
#7010
1!11
#7020
1!13
#7030
1!3
#7040
1!8
#7050
1!6
#7060
1!14
#7070
1!18
#7080
1!12
#7090
1!2
#7100
1!15
#7110
1!10
#7120
1!11
#7130
1!13
#7140
1!3
#7150
1!8
#7160
1!6
#7170
1!14
#7180
1!18
#7190
1!12
#7200
1!2
#7210
1!15
#7220
1!10
#7230
1!11
#7240
1!13
#7250
1!3
#7260
1!8
#7270
1!6
#7280
1!14
#7290
1!18
#7300
1!12
#7310
1!2
#7320
1!15
#7330
1!10
#7340
1!11
#7350
1!13
#7360
1!3
#7370
1!8
#7380
1!6
#7390
1!14
#7400
1!18
#7410
1!12
#7420
1!2
#7430
1!15
#7440
1!10
#7450
1!11
#7460
1!13
#7470
1!3
#7480
1!8
#7490
1!6
#7500
1!14
#7510
1!18
#7520
1!12
#7530
1!2
#7540
1!15
#7550
1!10
#7560
1!11
#7570
1!13
#7580
1!3
#7590
1!8
#7600
1!6
#7610
1!14
#7620
1!18
#7630
1!12
#7640
1!2
#7650
1!15
#7660
1!10
#7670
1!11
#7680
1!13
#7690
1!3
#7700
1!8
#7710
1!6
#7720
1!14
#7730
1!18
#7740
1!12
#7750
1!2
#7760
1!15
#7770
1!10
#7780
1!11
#7790
1!13
#7800
1!3
#7810
1!8
#7820
1!6
#7830
1!14
#7840
1!18
#7850
1!12
#7860
1!2
#7870
1!15
#7880
1!10
#7890
1!11
#7900
1!13
#7910
1!3
#7920
1!8
#7930
1!6
#7940
1!14
#7950
1!18
#7960
1!12
#7970
1!2
#7980
1!15
#7990
1!10
#8000
1!11
#8010
1!13
#8020
1!3
#8030
1!8
#8040
1!6
#8050
1!14
#8060
1!18
#8070
1!12
#8080
1!2
#8090
1!15
#8100
1!10
#8110
1!11
#8120
1!13
#8130
1!3
#8140
1!8
#8150
1!6
#8160
1!14
#8170
1!18
#8180
1!12
#8190
1!2
#8200
1!15
#8210
1!10
#8220
1!11
#8230
1!13
#8240
1!3
#8250
1!8
#8260
1!6
#8270
1!14
#8280
1!18
#8290
1!12
#8300
1!2
#8310
1!15
#8320
1!10
#8330
1!11
#8340
1!13
#8350
1!3
#8360
1!8
#8370
1!6
#8380
1!14
#8390
1!18
#8400
1!12
#8410
1!2
#8420
1!15
#8430
1!10
#8440
1!11
#8450
1!13
#8460
1!3
#8470
1!8
#8480
1!6
#8490
1!14
#8500
1!18
#8510
1!12
#8520
1!2
#8530
1!15
#8540
1!10
#8550
1!11
#8560
1!13
#8570
1!3
#8580
1!8
#8590
1!6
#8600
1!14
#8610
1!18
#8620
1!12
#8630
1!2
#8640
1!15
#8650
1!10
#8660
1!11
#8670
1!13
#8680
1!3
#8690
1!8
#8700
1!6
#8710
1!14
#8720
1!18
#8730
1!12
#8740
1!2
#8750
1!15
#8760
1!10
#8770
1!11
#8780
1!13
#8790
1!3
#8800
1!8
#8810
1!6
#8820
1!14
#8830
1!18
#8840
1!12
#8850
1!2
#8860
1!15
#8870
1!10
#8880
1!11
#8890
1!13
#8900
1!3
#8910
1!8
#8920
1!6
#8930
1!14
#8940
1!18
#8950
1!12
#8960
1!2
#8970
1!15
#8980
1!10
#8990
1!11
#9000
1!13
#9010
1!3
#9020
1!8
#9030
1!6
#9040
1!14
#9050
1!18
#9060
1!12
#9070
1!2
#9080
1!15
#9090
1!10
#9100
1!11
#9110
1!13
#9120
1!3
#9130
1!8
#9140
1!6
#9150
1!14
#9160
1!18
#9170
1!12
#9180
1!2
#9190
1!15
#9200
1!10
#9210
1!11
#9220
1!13
#9230
1!3
#9240
1!8
#9250
1!6
#9260
1!14
#9270
1!18
#9280
1!12
#9290
1!2
#9300
1!15
#9310
1!10
#9320
1!11
#9330
1!13
#9340
1!3
#9350
1!8
#9360
1!6
#9370
1!14
#9380
1!18
#9390
1!12
#9400
1!2
#9410
1!15
#9420
1!10
#9430
1!11
#9440
1!13
#9450
1!3
#9460
1!8
#9470
1!6
#9480
1!14
#9490
1!18
#9500
1!12
#9510
1!2
#9520
1!15
#9530
1!10
#9540
1!11
#9550
1!13
#9560
1!3
#9570
1!8
#9580
1!6
#9590
1!14
#9600
1!18
#9610
1!12
#9620
1!2
#9630
1!15
#9640
1!10
#9650
1!11
#9660
1!13
#9670
1!3
#9680
1!8
#9690
1!6
#9700
1!14
#9710
1!18
#9720
1!12
#9730
1!2
#9740
1!15
#9750
1!10
#9760
1!11
#9770
1!13
#9780
1!3
#9790
1!8
#9800
1!6
#9810
1!14
#9820
1!18
#9830
1!12
#9840
1!2
#9850
1!15
#9860
1!10
#9870
1!11
#9880
1!13
#9890
1!3
#9900
1!8
#9910
1!6
#9920
1!14
#9930
1!18
#9940
1!12
#9950
1!2
#9960
1!15
#9970
1!10
#9980
1!11
#9990
1!13
#10000
1!3
#10010
1!8
#10020
1!6
#10030
1!14
#10040
1!18
#10050
1!12
#10060
1!2
#10070
1!15
#10080
1!10
#10090
1!11
#10100
1!13
#10110
1!3
#10120
1!8
#10130
1!6
#10140
1!14
#10150
1!18
#10160
1!12
#10170
1!2
#10180
1!15
#10190
1!10
#10200
1!11
#10210
1!13
#10220
1!3
#10230
1!8
#10240
1!6
#10250
1!14
#10260
1!18
#10270
1!12
#10280
1!2
#10290
1!15
#10300
1!10
#10310
1!11
#10320
1!13
#10330
1!3
#10340
1!8
#10350
1!6
#10360
1!14
#10370
1!18
#10380
1!12
#10390
1!2
#10400
1!15
#10410
1!10
#10420
1!11
#10430
1!13
#10440
1!3
#10450
1!8
#10460
1!6
#10470
1!14
#10480
1!18
#10490
1!12
#10500
1!2
#10510
1!15
#10520
1!10
#10530
1!11
#10540
1!13
#10550
1!3
#10560
1!8
#10570
1!6
#10580
1!14
#10590
1!18
#10600
1!12
#10610
1!2
#10620
1!15
#10630
1!10
#10640
1!11
#10650
1!13
#10660
1!3
#10670
1!8
#10680
1!6
#10690
1!14
#10700
1!18
#10710
1!12
#10720
1!2
#10730
1!15
#10740
1!10
#10750
1!11
#10760
1!13
#10770
1!3
#10780
1!8
#10790
1!6
#10800
1!14
#10810
1!18
#10820
1!12
#10830
1!2
#10840
1!15
#10850
1!10
#10860
1!11
#10870
1!13
#10880
1!3
#10890
1!8
#10900
1!6
#10910
1!14
#10920
1!18
#10930
1!12
#10940
1!2
#10950
1!15
#10960
1!10
#10970
1!11
#10980
1!13
#10990
1!3
#11000
1!8
#11010
1!6
#11020
1!14
#11030
1!18
#11040
1!12
#11050
1!2
#11060
1!15
#11070
1!10
#11080
1!11
#11090
1!13
#11100
1!3
#11110
1!8
#11120
1!6
#11130
1!14
#11140
1!18
#11150
1!12
#11160
1!2
#11170
1!15
#11180
1!10
#11190
1!11
#11200
1!13
#11210
1!3
#11220
1!8
#11230
1!6
#11240
1!14
#11250
1!18
#11260
1!12
#11270
1!2
#11280
1!15
#11290
1!10
#11300
1!11
#11310
1!13
#11320
1!3
#11330
1!8
#11340
1!6
#11350
1!14
#11360
1!18
#11370
1!12
#11380
1!2
#11390
1!15
#11400
1!10
#11410
1!11
#11420
1!13
#11430
1!3
#11440
1!8
#11450
1!6
#11460
1!14
#11470
1!18
#11480
1!12
#11490
1!2
#11500
1!15
#11510
1!10
#11520
1!11
#11530
1!13
#11540
1!3
#11550
1!8
#11560
1!6
#11570
1!14
#11580
1!18
#11590
1!12
#11600
1!2
#11610
1!15
#11620
1!10
#11630
1!11
#11640
1!13
#11650
1!3
#11660
1!8
#11670
1!6
#11680
1!14
#11690
1!18
#11700
1!12
#11710
1!2
#11720
1!15
#11730
1!10
#11740
1!11
#11750
1!13
#11760
1!3
#11770
1!8
#11780
1!6
#11790
1!14
#11800
1!18
#11810
1!12
#11820
1!2
#11830
1!15
#11840
1!10
#11850
1!11
#11860
1!13
#11870
1!3
#11880
1!8
#11890
1!6
#11900
1!14
#11910
1!18
#11920
1!12
#11930
1!2
#11940
1!15
#11950
1!10
#11960
1!11
#11970
1!13
#11980
1!3
#11990
1!8
#12000
1!6
#12010
1!14
#12020
1!18
#12030
1!12
#12040
1!2
#12050
1!15
#12060
1!10
#12070
1!11
