without_metamodel/models_workbenches/fr.mleduc.gx10.programs/gemoc-gen/execution/execution-20160930_162500/vcdFromSimu.vcd
$date 
Fri Sep 30 16:25:01 CEST 2016
$end

$version 
VCD Generation 2.1.0
$end

$comment alias ProgramImpl_0__mainBlock__PrintImpl_11_print "ProgramImpl_0::mainBlock::PrintImpl_11_print" $end
$comment alias ProgramImpl_0__mainBlock__MethodCallImpl_5_startStatement "ProgramImpl_0::mainBlock::MethodCallImpl_5_startStatement" $end
$comment alias ProgramImpl_0__mainBlock__MethodCallImpl_12_startStatement "ProgramImpl_0::mainBlock::MethodCallImpl_12_startStatement" $end
$comment alias ProgramImpl_0__mainBlock__BlockImpl_9_startStatement "ProgramImpl_0::mainBlock::BlockImpl_9_startStatement" $end
$comment alias ProgramImpl_0__mainBlock__meth2_2_startMethodEvt "ProgramImpl_0::mainBlock::meth2_2_startMethodEvt" $end
$comment alias ProgramImpl_0__mainBlock__PrintImpl_3_startStatement "ProgramImpl_0::mainBlock::PrintImpl_3_startStatement" $end
$comment alias ProgramImpl_0__mainBlock__BlockImpl_9_endStatement "ProgramImpl_0::mainBlock::BlockImpl_9_endStatement" $end
$comment alias ProgramImpl_0__mainBlock__MethodCallImpl_12_endStatement "ProgramImpl_0::mainBlock::MethodCallImpl_12_endStatement" $end
$comment alias ProgramImpl_0__mainBlock__ProgramImpl_0_start "ProgramImpl_0::mainBlock::ProgramImpl_0_start" $end
$comment alias ProgramImpl_0__mainBlock__MethodCallImpl_8_startStatement "ProgramImpl_0::mainBlock::MethodCallImpl_8_startStatement" $end
$comment alias ProgramImpl_0__mainBlock__PrintImpl_10_endStatement "ProgramImpl_0::mainBlock::PrintImpl_10_endStatement" $end
$comment alias ProgramImpl_0__mainBlock__MethodCallImpl_8_callPreparation "ProgramImpl_0::mainBlock::MethodCallImpl_8_callPreparation" $end
$comment alias ProgramImpl_0__mainBlock__MethodCallImpl_12_callPreparation "ProgramImpl_0::mainBlock::MethodCallImpl_12_callPreparation" $end
$comment alias ProgramImpl_0__mainBlock__MethodCallImpl_5_endStatement "ProgramImpl_0::mainBlock::MethodCallImpl_5_endStatement" $end
$comment alias ProgramImpl_0__mainBlock__PrintImpl_11_startStatement "ProgramImpl_0::mainBlock::PrintImpl_11_startStatement" $end
$comment alias ProgramImpl_0__mainBlock__BlockImpl_14_startStatement "ProgramImpl_0::mainBlock::BlockImpl_14_startStatement" $end
$comment alias ProgramImpl_0__mainBlock__MethodCallImpl_8_endStatement "ProgramImpl_0::mainBlock::MethodCallImpl_8_endStatement" $end
$comment alias ProgramImpl_0__mainBlock__IntConstImpl_13_startStatement "ProgramImpl_0::mainBlock::IntConstImpl_13_startStatement" $end
$comment alias ProgramImpl_0__mainBlock__PrintImpl_10_startStatement "ProgramImpl_0::mainBlock::PrintImpl_10_startStatement" $end
$comment alias ProgramImpl_0__mainBlock__TrueImpl_4_startStatement "ProgramImpl_0::mainBlock::TrueImpl_4_startStatement" $end
$comment alias ProgramImpl_0__mainBlock__MethodCallImpl_5_callPreparation "ProgramImpl_0::mainBlock::MethodCallImpl_5_callPreparation" $end
$comment alias ProgramImpl_0__mainBlock__IntConstImpl_7_endStatement "ProgramImpl_0::mainBlock::IntConstImpl_7_endStatement" $end
$comment alias ProgramImpl_0__mainBlock__PrintImpl_3_print "ProgramImpl_0::mainBlock::PrintImpl_3_print" $end
$comment alias ProgramImpl_0__mainBlock__PrintImpl_11_endStatement "ProgramImpl_0::mainBlock::PrintImpl_11_endStatement" $end
$comment alias ProgramImpl_0__mainBlock__MethodCallImpl_6_endStatement "ProgramImpl_0::mainBlock::MethodCallImpl_6_endStatement" $end
$comment alias ProgramImpl_0__mainBlock__main_1_startMethodEvt "ProgramImpl_0::mainBlock::main_1_startMethodEvt" $end
$comment alias ProgramImpl_0__mainBlock__main_1_endMethodEvt "ProgramImpl_0::mainBlock::main_1_endMethodEvt" $end
$comment alias ProgramImpl_0__mainBlock__BlockImpl_14_endStatement "ProgramImpl_0::mainBlock::BlockImpl_14_endStatement" $end
$comment alias ProgramImpl_0__mainBlock__PrintImpl_15_endStatement "ProgramImpl_0::mainBlock::PrintImpl_15_endStatement" $end
$comment alias ProgramImpl_0__mainBlock__PrintImpl_10_print "ProgramImpl_0::mainBlock::PrintImpl_10_print" $end
$comment alias ProgramImpl_0__mainBlock__PrintImpl_15_startStatement "ProgramImpl_0::mainBlock::PrintImpl_15_startStatement" $end
$comment alias ProgramImpl_0__mainBlock__MethodCallImpl_6_startStatement "ProgramImpl_0::mainBlock::MethodCallImpl_6_startStatement" $end
$comment alias ProgramImpl_0__mainBlock__IntConstImpl_13_endStatement "ProgramImpl_0::mainBlock::IntConstImpl_13_endStatement" $end
$comment alias ProgramImpl_0__mainBlock__PrintImpl_15_print "ProgramImpl_0::mainBlock::PrintImpl_15_print" $end
$comment alias ProgramImpl_0__mainBlock__IntConstImpl_7_startStatement "ProgramImpl_0::mainBlock::IntConstImpl_7_startStatement" $end
$comment alias ProgramImpl_0__mainBlock__MethodCallImpl_6_callPreparation "ProgramImpl_0::mainBlock::MethodCallImpl_6_callPreparation" $end
$comment alias ProgramImpl_0__mainBlock__IntConstImpl_16_startStatement "ProgramImpl_0::mainBlock::IntConstImpl_16_startStatement" $end
$comment alias ProgramImpl_0__mainBlock__meth2_2_endMethodEvt "ProgramImpl_0::mainBlock::meth2_2_endMethodEvt" $end
$comment alias ProgramImpl_0__mainBlock__PrintImpl_3_endStatement "ProgramImpl_0::mainBlock::PrintImpl_3_endStatement" $end
$comment alias ProgramImpl_0__mainBlock__IntConstImpl_16_endStatement "ProgramImpl_0::mainBlock::IntConstImpl_16_endStatement" $end
$comment alias ProgramImpl_0__mainBlock__TrueImpl_4_endStatement "ProgramImpl_0::mainBlock::TrueImpl_4_endStatement" $end
$comment alias ProgramImpl_0__mainBlock__ProgramImpl_0intermediate_oneStartOnly1 "ProgramImpl_0::mainBlock::ProgramImpl_0intermediate_oneStartOnly1" $end
$comment alias ProgramImpl_0__mainBlock__meth2_2intermediate_allEventWhichCall21 "ProgramImpl_0::mainBlock::meth2_2intermediate_allEventWhichCall21" $end
$comment hide ProgramImpl_0__mainBlock__ProgramImpl_0intermediate_oneStartOnly1__OneTickAndNoMoreDef__OneTickAndNoMore_onlyOne__FilterByDef__FilterBy_waitHead $end
$comment alias ProgramImpl_0__mainBlock__ProgramImpl_0intermediate_oneStartOnly1__OneTickAndNoMoreDef__OneTickAndNoMore_onlyOne__FilterByDef__FilterBy_waitHead "ProgramImpl_0::mainBlock::ProgramImpl_0intermediate_oneStartOnly1::OneTickAndNoMoreDef::OneTickAndNoMore_onlyOne::FilterByDef::FilterBy_waitHead" $end
$comment hide ProgramImpl_0__mainBlock__ProgramImpl_0intermediate_oneStartOnly1__OneTickAndNoMoreDef__OneTickAndNoMore_onlyOne__FilterByDef__FilterBy_death $end
$comment alias ProgramImpl_0__mainBlock__ProgramImpl_0intermediate_oneStartOnly1__OneTickAndNoMoreDef__OneTickAndNoMore_onlyOne__FilterByDef__FilterBy_death "ProgramImpl_0::mainBlock::ProgramImpl_0intermediate_oneStartOnly1::OneTickAndNoMoreDef::OneTickAndNoMore_onlyOne::FilterByDef::FilterBy_death" $end
$comment alias ProgramImpl_0__mainBlock__meth2_2intermediate_allEventWhichCall221 "ProgramImpl_0::mainBlock::meth2_2intermediate_allEventWhichCall221" $end
$comment hide ProgramImpl_0__mainBlock__ProgramImpl_0intermediate_oneStartOnly1__OneTickAndNoMoreDef__OneTickAndNoMore_onlyOne__FilterByDef__FilterBy_concatWait $end
$comment alias ProgramImpl_0__mainBlock__ProgramImpl_0intermediate_oneStartOnly1__OneTickAndNoMoreDef__OneTickAndNoMore_onlyOne__FilterByDef__FilterBy_concatWait "ProgramImpl_0::mainBlock::ProgramImpl_0intermediate_oneStartOnly1::OneTickAndNoMoreDef::OneTickAndNoMore_onlyOne::FilterByDef::FilterBy_concatWait" $end
$comment alias ProgramImpl_0__mainBlock__meth2_2intermediate_allEventWhichCall23 "ProgramImpl_0::mainBlock::meth2_2intermediate_allEventWhichCall23" $end
$comment alias ProgramImpl_0__mainBlock__meth2_2intermediate_allEventWhichCall223 "ProgramImpl_0::mainBlock::meth2_2intermediate_allEventWhichCall223" $end
$comment alias ProgramImpl_0__mainBlock__meth2_2intermediate_allEventWhichCall24 "ProgramImpl_0::mainBlock::meth2_2intermediate_allEventWhichCall24" $end
$comment alias ProgramImpl_0__mainBlock__meth2_2intermediate_allEventWhichCall224 "ProgramImpl_0::mainBlock::meth2_2intermediate_allEventWhichCall224" $end
$comment hide ProgramImpl_0__mainBlock__ProgramImpl_0intermediate_oneStartOnly1__OneTickAndNoMoreDef__OneTickAndNoMore_onlyOne__FilterByDef__killIt $end
$comment alias ProgramImpl_0__mainBlock__ProgramImpl_0intermediate_oneStartOnly1__OneTickAndNoMoreDef__OneTickAndNoMore_onlyOne__FilterByDef__killIt "ProgramImpl_0::mainBlock::ProgramImpl_0intermediate_oneStartOnly1::OneTickAndNoMoreDef::OneTickAndNoMore_onlyOne::FilterByDef::killIt" $end
$comment hide ProgramImpl_0__mainBlock__ProgramImpl_0intermediate_oneStartOnly1__OneTickAndNoMoreDef__OneTickAndNoMore_onlyOne__FilterByDef__FilterBy_FilterBySeqTail $end
$comment alias ProgramImpl_0__mainBlock__ProgramImpl_0intermediate_oneStartOnly1__OneTickAndNoMoreDef__OneTickAndNoMore_onlyOne__FilterByDef__FilterBy_FilterBySeqTail "ProgramImpl_0::mainBlock::ProgramImpl_0intermediate_oneStartOnly1::OneTickAndNoMoreDef::OneTickAndNoMore_onlyOne::FilterByDef::FilterBy_FilterBySeqTail" $end
$comment hide ProgramImpl_0__mainBlock__ProgramImpl_0intermediate_oneStartOnly1__OneTickAndNoMoreDef__OneTickAndNoMore_onlyOne $end
$comment alias ProgramImpl_0__mainBlock__ProgramImpl_0intermediate_oneStartOnly1__OneTickAndNoMoreDef__OneTickAndNoMore_onlyOne "ProgramImpl_0::mainBlock::ProgramImpl_0intermediate_oneStartOnly1::OneTickAndNoMoreDef::OneTickAndNoMore_onlyOne" $end
$comment scale 0.1  $end
$scope module top $end
$var event 1 !1 ProgramImpl_0__mainBlock__PrintImpl_11_print $end
$var event 1 !2 ProgramImpl_0__mainBlock__MethodCallImpl_5_startStatement $end
$var event 1 !3 ProgramImpl_0__mainBlock__MethodCallImpl_12_startStatement $end
$var event 1 !4 ProgramImpl_0__mainBlock__BlockImpl_9_startStatement $end
$var event 1 !5 ProgramImpl_0__mainBlock__meth2_2_startMethodEvt $end
$var event 1 !6 ProgramImpl_0__mainBlock__PrintImpl_3_startStatement $end
$var event 1 !7 ProgramImpl_0__mainBlock__BlockImpl_9_endStatement $end
$var event 1 !8 ProgramImpl_0__mainBlock__MethodCallImpl_12_endStatement $end
$var event 1 !9 ProgramImpl_0__mainBlock__ProgramImpl_0_start $end
$var event 1 !10 ProgramImpl_0__mainBlock__MethodCallImpl_8_startStatement $end
$var event 1 !11 ProgramImpl_0__mainBlock__PrintImpl_10_endStatement $end
$var event 1 !12 ProgramImpl_0__mainBlock__MethodCallImpl_8_callPreparation $end
$var event 1 !13 ProgramImpl_0__mainBlock__MethodCallImpl_12_callPreparation $end
$var event 1 !14 ProgramImpl_0__mainBlock__MethodCallImpl_5_endStatement $end
$var event 1 !15 ProgramImpl_0__mainBlock__PrintImpl_11_startStatement $end
$var event 1 !16 ProgramImpl_0__mainBlock__BlockImpl_14_startStatement $end
$var event 1 !17 ProgramImpl_0__mainBlock__MethodCallImpl_8_endStatement $end
$var event 1 !18 ProgramImpl_0__mainBlock__IntConstImpl_13_startStatement $end
$var event 1 !19 ProgramImpl_0__mainBlock__PrintImpl_10_startStatement $end
$var event 1 !20 ProgramImpl_0__mainBlock__TrueImpl_4_startStatement $end
$var event 1 !21 ProgramImpl_0__mainBlock__MethodCallImpl_5_callPreparation $end
$var event 1 !22 ProgramImpl_0__mainBlock__IntConstImpl_7_endStatement $end
$var event 1 !23 ProgramImpl_0__mainBlock__PrintImpl_3_print $end
$var event 1 !24 ProgramImpl_0__mainBlock__PrintImpl_11_endStatement $end
$var event 1 !25 ProgramImpl_0__mainBlock__MethodCallImpl_6_endStatement $end
$var event 1 !26 ProgramImpl_0__mainBlock__main_1_startMethodEvt $end
$var event 1 !27 ProgramImpl_0__mainBlock__main_1_endMethodEvt $end
$var event 1 !28 ProgramImpl_0__mainBlock__BlockImpl_14_endStatement $end
$var event 1 !29 ProgramImpl_0__mainBlock__PrintImpl_15_endStatement $end
$var event 1 !30 ProgramImpl_0__mainBlock__PrintImpl_10_print $end
$var event 1 !31 ProgramImpl_0__mainBlock__PrintImpl_15_startStatement $end
$var event 1 !32 ProgramImpl_0__mainBlock__MethodCallImpl_6_startStatement $end
$var event 1 !33 ProgramImpl_0__mainBlock__IntConstImpl_13_endStatement $end
$var event 1 !34 ProgramImpl_0__mainBlock__PrintImpl_15_print $end
$var event 1 !35 ProgramImpl_0__mainBlock__IntConstImpl_7_startStatement $end
$var event 1 !36 ProgramImpl_0__mainBlock__MethodCallImpl_6_callPreparation $end
$var event 1 !37 ProgramImpl_0__mainBlock__IntConstImpl_16_startStatement $end
$var event 1 !38 ProgramImpl_0__mainBlock__meth2_2_endMethodEvt $end
$var event 1 !39 ProgramImpl_0__mainBlock__PrintImpl_3_endStatement $end
$var event 1 !40 ProgramImpl_0__mainBlock__IntConstImpl_16_endStatement $end
$var event 1 !41 ProgramImpl_0__mainBlock__TrueImpl_4_endStatement $end
$var event 1 !42 ProgramImpl_0__mainBlock__ProgramImpl_0intermediate_oneStartOnly1 $end
$var event 1 !43 ProgramImpl_0__mainBlock__meth2_2intermediate_allEventWhichCall21 $end
$var event 1 !44 ProgramImpl_0__mainBlock__ProgramImpl_0intermediate_oneStartOnly1__OneTickAndNoMoreDef__OneTickAndNoMore_onlyOne__FilterByDef__FilterBy_waitHead $end
$var event 1 !45 ProgramImpl_0__mainBlock__ProgramImpl_0intermediate_oneStartOnly1__OneTickAndNoMoreDef__OneTickAndNoMore_onlyOne__FilterByDef__FilterBy_death $end
$var event 1 !46 ProgramImpl_0__mainBlock__meth2_2intermediate_allEventWhichCall221 $end
$var event 1 !47 ProgramImpl_0__mainBlock__ProgramImpl_0intermediate_oneStartOnly1__OneTickAndNoMoreDef__OneTickAndNoMore_onlyOne__FilterByDef__FilterBy_concatWait $end
$var event 1 !48 ProgramImpl_0__mainBlock__meth2_2intermediate_allEventWhichCall23 $end
$var event 1 !49 ProgramImpl_0__mainBlock__meth2_2intermediate_allEventWhichCall223 $end
$var event 1 !50 ProgramImpl_0__mainBlock__meth2_2intermediate_allEventWhichCall24 $end
$var event 1 !51 ProgramImpl_0__mainBlock__meth2_2intermediate_allEventWhichCall224 $end
$var event 1 !52 ProgramImpl_0__mainBlock__ProgramImpl_0intermediate_oneStartOnly1__OneTickAndNoMoreDef__OneTickAndNoMore_onlyOne__FilterByDef__killIt $end
$var event 1 !53 ProgramImpl_0__mainBlock__ProgramImpl_0intermediate_oneStartOnly1__OneTickAndNoMoreDef__OneTickAndNoMore_onlyOne__FilterByDef__FilterBy_FilterBySeqTail $end
$var event 1 !54 ProgramImpl_0__mainBlock__ProgramImpl_0intermediate_oneStartOnly1__OneTickAndNoMoreDef__OneTickAndNoMore_onlyOne $end
$upscope $end
$enddefinitions $end

#10
1!9
#20
1!26
#30
1!4
#40
1!3
#50
1!13
#60
1!5
#70
1!16
#80
1!31
#90
1!20
#100
1!41
#110
1!34
#120
1!29
#130
1!28
#140
1!38
#150
1!8
#160
1!19
#170
1!35
#180
1!22
#190
1!30
#200
1!11
#210
1!10
#220
1!12
#230
1!5
#240
1!16
#250
1!31
#260
1!20
#270
1!41
#280
1!34
#290
1!29
#300
1!28
#310
1!38
#320
1!17
#330
1!15
#340
1!37
#350
1!40
#360
1!1
#370
1!24
#380
1!2
#390
1!21
#400
1!5
#410
1!16
#420
1!31
#430
1!20
#440
1!41
#450
1!34
#460
1!29
#470
1!28
#480
1!38
#490
1!14
#500
1!6
#510
1!18
#520
1!33
#530
1!23
#540
1!39
#550
1!32
#560
1!36
#570
1!5
#580
1!16
#590
1!31
#600
1!20
#610
1!41
#620
1!34
#630
1!29
#640
1!28
#650
1!38
#660
1!25
#670
1!7
#680
1!27
#690
z!1
z!2
z!3
z!4
z!5
z!6
z!7
z!8
z!9
z!10
z!11
z!12
z!13
z!14
z!15
z!16
z!17
z!18
z!19
z!20
z!21
z!22
z!23
z!24
z!25
z!26
z!27
z!28
z!29
z!30
z!31
z!32
z!33
z!34
z!35
z!36
z!37
z!38
z!39
z!40
z!41
z!42
z!43
z!44
z!45
z!46
z!47
z!48
z!49
z!50
z!51
z!52
z!53
z!54
